[gd_scene load_steps=4 format=2]

[ext_resource path="res://scripts/system/projectiles/p_basic.gd" type="Script" id=1]
[ext_resource path="res://assets/sprites/projectiles/p_basic.png" type="Texture" id=2]

[sub_resource type="CircleShape2D" id=1]
radius = 4.0

[node name="PBasic" type="KinematicBody2D"]
collision_layer = 32
collision_mask = 98304
script = ExtResource( 1 )

[node name="SpriteOrigin" type="Node2D" parent="."]

[node name="Sprite" type="Sprite" parent="SpriteOrigin"]
position = Vector2( 8, 0 )
texture = ExtResource( 2 )

[node name="CollisionShape" type="CollisionShape2D" parent="."]
position = Vector2( 12, 0 )
shape = SubResource( 1 )

[node name="VisibilityNotifier" type="VisibilityNotifier2D" parent="."]
position = Vector2( 8, -8.47033e-22 )
scale = Vector2( 0.8, 0.4 )
__meta__ = {
"_edit_lock_": true
}

[connection signal="screen_exited" from="VisibilityNotifier" to="." method="_on_VisibilityNotifier_screen_exited"]
